D:\Documents\DTU\Courses\Webservices\Group12\TokenManagement_MS\src\main\java\dtu\ws\fastmoney\RetireAccount.java
D:\Documents\DTU\Courses\Webservices\Group12\TokenManagement_MS\src\main\java\dtu\ws\fastmoney\RetireAccountResponse.java
D:\Documents\DTU\Courses\Webservices\Group12\TokenManagement_MS\src\main\java\org\acme\TokenManagerResource.java
D:\Documents\DTU\Courses\Webservices\Group12\TokenManagement_MS\src\main\java\dtu\rs\entities\MerchantAccount.java
D:\Documents\DTU\Courses\Webservices\Group12\TokenManagement_MS\src\main\java\dtu\ws\fastmoney\GetAccountByCprNumber.java
D:\Documents\DTU\Courses\Webservices\Group12\TokenManagement_MS\src\main\java\messaging\mq\MQSender.java
D:\Documents\DTU\Courses\Webservices\Group12\TokenManagement_MS\src\main\java\dtu\rs\entities\DTUPayAccount.java
D:\Documents\DTU\Courses\Webservices\Group12\TokenManagement_MS\src\main\java\dtu\ws\fastmoney\CreateAccountWithBalance.java
D:\Documents\DTU\Courses\Webservices\Group12\TokenManagement_MS\src\main\java\dtu\ws\fastmoney\GetAccounts.java
D:\Documents\DTU\Courses\Webservices\Group12\TokenManagement_MS\src\main\java\messaging\utils\JsonUtils.java
D:\Documents\DTU\Courses\Webservices\Group12\TokenManagement_MS\src\main\java\dtu\ws\fastmoney\TransferMoneyFromTo.java
D:\Documents\DTU\Courses\Webservices\Group12\TokenManagement_MS\src\main\java\dtu\ws\fastmoney\BankServiceException_Exception.java
D:\Documents\DTU\Courses\Webservices\Group12\TokenManagement_MS\src\main\java\messaging\entities\Event.java
D:\Documents\DTU\Courses\Webservices\Group12\TokenManagement_MS\src\main\java\dtu\rs\entities\CustomerAccount.java
D:\Documents\DTU\Courses\Webservices\Group12\TokenManagement_MS\src\main\java\dtu\rs\entities\CustomerNotFoundException.java
D:\Documents\DTU\Courses\Webservices\Group12\TokenManagement_MS\src\main\java\messaging\entities\EVENT_TYPE.java
D:\Documents\DTU\Courses\Webservices\Group12\TokenManagement_MS\src\main\java\dtu\rs\entities\InvalidUseException.java
D:\Documents\DTU\Courses\Webservices\Group12\TokenManagement_MS\src\main\java\dtu\ws\fastmoney\AccountInfo.java
D:\Documents\DTU\Courses\Webservices\Group12\TokenManagement_MS\src\main\java\messaging\entities\EventProcessor.java
D:\Documents\DTU\Courses\Webservices\Group12\TokenManagement_MS\src\main\java\dtu\rs\entities\PaymentData.java
D:\Documents\DTU\Courses\Webservices\Group12\TokenManagement_MS\src\main\java\dtu\ws\fastmoney\GetAccountsResponse.java
D:\Documents\DTU\Courses\Webservices\Group12\TokenManagement_MS\src\main\java\dtu\ws\fastmoney\User.java
D:\Documents\DTU\Courses\Webservices\Group12\TokenManagement_MS\src\main\java\dtu\ws\fastmoney\CreateAccountWithBalanceResponse.java
D:\Documents\DTU\Courses\Webservices\Group12\TokenManagement_MS\src\main\java\messaging\mq\MQListener.java
D:\Documents\DTU\Courses\Webservices\Group12\TokenManagement_MS\src\main\java\dtu\rs\entities\CreateTokenData.java
D:\Documents\DTU\Courses\Webservices\Group12\TokenManagement_MS\src\main\java\dtu\ws\test\TestSOAPMain.java
D:\Documents\DTU\Courses\Webservices\Group12\TokenManagement_MS\src\main\java\dtu\ws\fastmoney\ObjectFactory.java
D:\Documents\DTU\Courses\Webservices\Group12\TokenManagement_MS\src\main\java\org\acme\main\QuarkusMain.java
D:\Documents\DTU\Courses\Webservices\Group12\TokenManagement_MS\src\main\java\dtu\ws\fastmoney\BankService.java
D:\Documents\DTU\Courses\Webservices\Group12\TokenManagement_MS\src\main\java\dtu\rs\entities\InvalidRequestException.java
D:\Documents\DTU\Courses\Webservices\Group12\TokenManagement_MS\src\main\java\dtu\ws\fastmoney\package-info.java
D:\Documents\DTU\Courses\Webservices\Group12\TokenManagement_MS\src\main\java\dtu\ws\fastmoney\GetAccount.java
D:\Documents\DTU\Courses\Webservices\Group12\TokenManagement_MS\src\main\java\messaging\entities\EventReceiver.java
D:\Documents\DTU\Courses\Webservices\Group12\TokenManagement_MS\src\main\java\manager\TokenManager.java
D:\Documents\DTU\Courses\Webservices\Group12\TokenManagement_MS\src\main\java\dtu\ws\fastmoney\Account.java
D:\Documents\DTU\Courses\Webservices\Group12\TokenManagement_MS\src\main\java\dtu\ws\fastmoney\BankServiceService.java
D:\Documents\DTU\Courses\Webservices\Group12\TokenManagement_MS\src\main\java\dtu\ws\fastmoney\GetAccountByCprNumberResponse.java
D:\Documents\DTU\Courses\Webservices\Group12\TokenManagement_MS\src\main\java\dtu\ws\fastmoney\TransferMoneyFromToResponse.java
D:\Documents\DTU\Courses\Webservices\Group12\TokenManagement_MS\src\main\java\dtu\ws\fastmoney\GetAccountResponse.java
D:\Documents\DTU\Courses\Webservices\Group12\TokenManagement_MS\src\main\java\dtu\ws\fastmoney\BankServiceException.java
D:\Documents\DTU\Courses\Webservices\Group12\TokenManagement_MS\src\main\java\entity\local\DTUTransaction.java
D:\Documents\DTU\Courses\Webservices\Group12\TokenManagement_MS\src\main\java\dtu\ws\fastmoney\Transaction.java
D:\Documents\DTU\Courses\Webservices\Group12\TokenManagement_MS\src\main\java\dtu\rs\entities\Token.java
